-1 -0,047619 -0,0465826 -0,047619
-0,986667 -0,0494459 -0,0502687 -0,134375
-0,973333 -0,0513619 -0,0524 -0,176534
-0,96 -0,0533721 -0,0538691 -0,189137
-0,946667 -0,0554817 -0,0552407 -0,183384
-0,933333 -0,0576962 -0,0568398 -0,167419
-0,92 -0,0600214 -0,058822 -0,146979
-0,906667 -0,0624635 -0,061229 -0,125941
-0,893333 -0,0650288 -0,0640309 -0,10676
-0,88 -0,067724 -0,067159 -0,0908365
-0,866667 -0,0705562 -0,0705292 -0,078805
-0,853333 -0,0735324 -0,0740585 -0,0707693
-0,84 -0,0766603 -0,0776758 -0,066482
-0,826667 -0,0799476 -0,0813286 -0,0654851
-0,813333 -0,0834022 -0,0849855 -0,0672148
-0,8 -0,0870322 -0,0886367 -0,0710777
-0,786667 -0,0908457 -0,0922923 -0,0765039
-0,773333 -0,0948509 -0,0959793 -0,082982
-0,76 -0,0990559 -0,0997379 -0,0900792
-0,746667 -0,103468 -0,103618 -0,0974501
-0,733333 -0,108096 -0,107673 -0,104838
-0,72 -0,112945 -0,111958 -0,112069
-0,706667 -0,118022 -0,116526 -0,119044
-0,693333 -0,123332 -0,121422 -0,125724
-0,68 -0,128879 -0,126683 -0,132124
-0,666667 -0,134663 -0,132335 -0,138291
-0,653333 -0,140686 -0,13839 -0,144298
-0,64 -0,146943 -0,144847 -0,150229
-0,626667 -0,153428 -0,151691 -0,156173
-0,613333 -0,160131 -0,158893 -0,162209
-0,6 -0,167038 -0,16641 -0,168405
-0,586667 -0,174128 -0,174188 -0,174811
-0,573333 -0,181376 -0,182159 -0,181454
-0,56 -0,188749 -0,190249 -0,188337
-0,546667 -0,196208 -0,198374 -0,195442
-0,533333 -0,203704 -0,206444 -0,202724
-0,52 -0,211183 -0,214365 -0,210119
-0,506667 -0,218578 -0,222043 -0,217545
-0,493333 -0,225818 -0,229383 -0,224902
-0,48 -0,232819 -0,236291 -0,23208
-0,466667 -0,239495 -0,242677 -0,238962
-0,453333 -0,24575 -0,248458 -0,245425
-0,44 -0,251483 -0,253555 -0,251348
-0,426667 -0,256595 -0,257899 -0,256614
-0,413333 -0,260983 -0,261428 -0,261113
-0,4 -0,26455 -0,264091 -0,264744
-0,386667 -0,267206 -0,265845 -0,267421
-0,373333 -0,268871 -0,266661 -0,269071
-0,36 -0,269477 -0,266515 -0,269638
-0,346667 -0,268973 -0,265398 -0,269085
-0,333333 -0,267327 -0,263308 -0,267389
-0,32 -0,264525 -0,260253 -0,264548
-0,306667 -0,260574 -0,25625 -0,260573
-0,293333 -0,255501 -0,251323 -0,255495
-0,28 -0,249347 -0,245504 -0,249355
-0,266667 -0,242174 -0,238832 -0,24221
-0,253333 -0,234053 -0,231348 -0,234126
-0,24 -0,225066 -0,2231 -0,225178
-0,226667 -0,2153 -0,214137 -0,215445
-0,213333 -0,204847 -0,204512 -0,205014
-0,2 -0,193798 -0,194279 -0,193969
-0,186667 -0,182241 -0,18349 -0,182399
-0,173333 -0,17026 -0,172199 -0,170385
-0,16 -0,15793 -0,160457 -0,158007
-0,146667 -0,145322 -0,148315 -0,14534
-0,133333 -0,132496 -0,135821 -0,132449
-0,12 -0,119504 -0,123019 -0,119394
-0,106667 -0,106391 -0,109952 -0,106224
-0,0933333 -0,0931919 -0,0966596 -0,0929816
-0,08 -0,0799345 -0,0831774 -0,0796986
-0,0666667 -0,0666403 -0,069539 -0,0663991
-0,0533333 -0,0533247 -0,055775 -0,0530995
-0,04 -0,039998 -0,0419136 -0,0398087
-0,0266667 -0,0266664 -0,0279811 -0,0265299
-0,0133333 -0,0133333 -0,0140021 -0,0132619
-1,36349e-15 -1,36349e-15 -1,52833e-15 -1,21535e-15
0,0133333 0,0133333 0,0140021 0,0132619
0,0266667 0,0266664 0,0279811 0,0265299
0,04 0,039998 0,0419136 0,0398087
0,0533333 0,0533247 0,055775 0,0530995
0,0666667 0,0666403 0,069539 0,0663991
0,08 0,0799345 0,0831774 0,0796986
0,0933333 0,0931919 0,0966596 0,0929816
0,106667 0,106391 0,109952 0,106224
0,12 0,119504 0,123019 0,119394
0,133333 0,132496 0,135821 0,132449
0,146667 0,145322 0,148315 0,14534
0,16 0,15793 0,160457 0,158007
0,173333 0,17026 0,172199 0,170385
0,186667 0,182241 0,18349 0,182399
0,2 0,193798 0,194279 0,193969
0,213333 0,204847 0,204512 0,205014
0,226667 0,2153 0,214137 0,215445
0,24 0,225066 0,2231 0,225178
0,253333 0,234053 0,231348 0,234126
0,266667 0,242174 0,238832 0,24221
0,28 0,249347 0,245504 0,249355
0,293333 0,255501 0,251323 0,255495
0,306667 0,260574 0,25625 0,260573
0,32 0,264525 0,260253 0,264548
0,333333 0,267327 0,263308 0,267389
0,346667 0,268973 0,265398 0,269085
0,36 0,269477 0,266515 0,269638
0,373333 0,268871 0,266661 0,269071
0,386667 0,267206 0,265845 0,267421
0,4 0,26455 0,264091 0,264744
0,413333 0,260983 0,261428 0,261113
0,426667 0,256595 0,257899 0,256614
0,44 0,251483 0,253555 0,251348
0,453333 0,24575 0,248458 0,245425
0,466667 0,239495 0,242677 0,238962
0,48 0,232819 0,236291 0,23208
0,493333 0,225818 0,229383 0,224902
0,506667 0,218578 0,222043 0,217545
0,52 0,211183 0,214365 0,210119
0,533333 0,203704 0,206444 0,202724
0,546667 0,196208 0,198374 0,195442
0,56 0,188749 0,190249 0,188337
0,573333 0,181376 0,182159 0,181454
0,586667 0,174128 0,174188 0,174811
0,6 0,167038 0,16641 0,168405
0,613333 0,160131 0,158893 0,162209
0,626667 0,153428 0,151691 0,156173
0,64 0,146943 0,144847 0,150229
0,653333 0,140686 0,13839 0,144298
0,666667 0,134663 0,132335 0,138291
0,68 0,128879 0,126683 0,132124
0,693333 0,123332 0,121422 0,125724
0,706667 0,118022 0,116526 0,119044
0,72 0,112945 0,111958 0,112069
0,733333 0,108096 0,107673 0,104838
0,746667 0,103468 0,103618 0,0974501
0,76 0,0990559 0,0997379 0,0900792
0,773333 0,0948509 0,0959793 0,082982
0,786667 0,0908457 0,0922923 0,0765039
0,8 0,0870322 0,0886367 0,0710777
0,813333 0,0834022 0,0849855 0,0672148
0,826667 0,0799476 0,0813286 0,0654851
0,84 0,0766603 0,0776758 0,066482
0,853333 0,0735324 0,0740585 0,0707693
0,866667 0,0705562 0,0705292 0,078805
0,88 0,067724 0,067159 0,0908365
0,893333 0,0650288 0,0640309 0,10676
0,906667 0,0624635 0,061229 0,125941
0,92 0,0600214 0,058822 0,146979
0,933333 0,0576962 0,0568398 0,167419
0,946667 0,0554817 0,0552407 0,183384
0,96 0,0533721 0,0538691 0,189137
0,973333 0,0513619 0,0524 0,176534
0,986667 0,0494459 0,0502687 0,134375
1 0,047619 0,0465826 0,047619
